idrencontre;Nom de la competition;Type du match;Date;Team;player;SCPG;GPG;APG;SAPG;SHPG;rating
1;RLCS X Spring Europe Regional 1;Playoffs;2021-03-14;Team Vitality;Kaydop;444.2;0.6;0.8;2.0;3.8;1.27
8;RLCS X Spring Europe Regional 1;Knockout Gauntlet;2021-03-13;Team Vitality;Kaydop;327.6;1.0;0.4;0.8;2.4;1.11
11;RLCS X Spring Europe Regional 1;Playoffs;2021-03-14;Team Vitality;Kaydop;381.83;0.67;0.67;2.17;1.83;1.02
19;RLCS X Spring Europe Regional 1;Playoffs;2021-03-14;Team Vitality;Kaydop;252.5;0.33;0.33;1.0;2.0;0.72
22;RLCS X Spring Europe Regional 1;Group B;2021-03-12;Team Vitality;Kaydop;384.33;1.33;0.33;1.33;4.33;1.31
44;RLCS X Spring Europe Regional 1;Group B;2021-03-11;Team Vitality;Kaydop;363.25;0.25;0.5;2.75;3.25;0.91
46;RLCS X Spring Europe Regional 1;Group B;2021-03-11;Team Vitality;Kaydop;453.5;0.25;0.75;2.25;3.75;1.05
57;RLCS X Spring Europe Regional 1;Group B;2021-03-12;Team Vitality;Kaydop;361.75;0.75;0.75;0.75;3.5;1.1
73;RLCS X Winter Europe Major;Overall;2021-02-20;Team Vitality;Kaydop;382.0;0.71;0.57;1.57;3.14;1.05
74;RLCS X Winter Europe Major;Overall;2021-02-20;Team Vitality;Kaydop;391.86;0.86;0.14;2.0;2.57;0.99
76;RLCS X Winter Europe Major;Overall;2021-02-20;Team Vitality;Kaydop;451.4;1.2;0.6;1.6;2.8;1.33
86;RLCS X Winter Europe Major;Overall;2021-02-20;Team Vitality;Kaydop;298.57;0.57;0.43;1.0;2.43;0.88
90;RLCS X Winter Europe Major;Overall;2021-02-20;Team Vitality;Kaydop;429.67;0.33;0.67;2.67;2.0;1.12
93;RLCS X Winter Europe Major;Overall;2021-02-20;Team Vitality;Kaydop;343.4;0.4;0.8;1.4;3.2;0.95
155;RLCS X Winter Europe Regional 3;Overall;2021-01-16;Team Vitality;Kaydop;321.5;0.25;0.5;1.5;2.75;0.77
174;RLCS X Winter Europe Regional 3;Overall;2021-01-09;Team Vitality;Kaydop;556.75;1.75;1.0;2.0;3.75;1.75
191;RLCS X Winter Europe Regional 3;Overall;2021-01-16;Team Vitality;Kaydop;273.5;0.75;0.25;0.5;1.75;0.77
257;RLCS X Winter Europe Regional 2;Overall;2020-12-03;Team Vitality;Kaydop;275.33;0.0;0.0;1.0;3.33;0.47
263;RLCS X Winter Europe Regional 2;Overall;2020-12-03;Team Vitality;Kaydop;415.0;2.25;0.75;0.0;4.0;1.67
280;RLCS X Winter Europe Regional 2;Overall;2020-12-03;Team Vitality;Kaydop;351.0;0.33;0.33;2.0;2.33;0.78
283;RLCS X Winter Europe Regional 2;Overall;2020-12-03;Team Vitality;Kaydop;323.67;0.0;1.67;1.33;2.33;0.97
330;RLCS X Winter Europe Regional 1;Overall;2020-11-12;Team Vitality;Kaydop;384.0;0.4;0.6;2.0;2.6;1.0
341;RLCS X Winter Europe Regional 1;Overall;2020-11-12;Team Vitality;Kaydop;456.75;1.0;0.5;2.5;2.75;1.22
346;RLCS X Winter Europe Regional 1;Overall;2020-11-12;Team Vitality;Kaydop;241.25;0.25;0.25;1.25;1.25;0.65
347;RLCS X Winter Europe Regional 1;Overall;2020-11-12;Team Vitality;Kaydop;288.17;0.33;0.33;1.0;2.83;0.72
350;RLCS X Winter Europe Regional 1;Overall;2020-11-12;Team Vitality;Kaydop;337.2;0.4;0.4;1.6;1.8;0.66
357;RLCS X Winter Europe Regional 1;Overall;2020-11-12;Team Vitality;Kaydop;370.25;0.75;0.0;2.0;3.0;0.88
376;RLCS X Europe Fall Major;Finals;2020-10-24;Team Vitality;Kaydop;392.0;0.83;0.17;1.67;2.83;1.03
382;RLCS X Europe Fall Major;Swiss Stage;2020-10-17;Team Vitality;Kaydop;364.0;0.0;1.67;1.67;2.0;0.98
387;RLCS X Europe Fall Major;Finals;2020-10-24;Team Vitality;Kaydop;424.5;1.5;0.5;1.5;2.5;1.5
389;RLCS X Europe Fall Major;Swiss Stage;2020-10-17;Team Vitality;Kaydop;393.67;1.33;1.0;1.0;3.33;1.56
400;RLCS X Europe Fall Major;Swiss Stage;2020-10-17;Team Vitality;Kaydop;402.25;0.5;0.5;2.5;2.25;1.06
408;RLCS X Europe Fall Major;Swiss Stage;2020-10-17;Team Vitality;Kaydop;383.25;0.5;1.25;1.5;3.25;1.2
409;RLCS X Europe Fall Major;Finals;2020-10-24;Team Vitality;Kaydop;503.33;1.0;0.33;2.67;3.33;1.26
